%YAML 1.1
%TAG !u! tag:unity3d.com,2011:
--- !u!136 &4438597501303199885
CapsuleCollider:
  m_ObjectHideFlags: 0
  m_CorrespondingSourceObject: {fileID: 0}
  m_PrefabInstance: {fileID: 0}
  m_PrefabAsset: {fileID: 0}
  m_GameObject: {fileID: 4163517574509824029}
  m_Material: {fileID: 0}
  m_IsTrigger: 0
  m_Enabled: 1
  m_Radius: 0.88887215
  m_Height: 7.750572
  m_Direction: 1
  m_Center: {x: 0, y: 3.375286, z: -0.05}
--- !u!136 &4658202722717996870
CapsuleCollider:
  m_ObjectHideFlags: 0
  m_CorrespondingSourceObject: {fileID: 0}
  m_PrefabInstance: {fileID: 0}
  m_PrefabAsset: {fileID: 0}
  m_GameObject: {fileID: 4163517574509824029}
  m_Material: {fileID: 0}
  m_IsTrigger: 0
  m_Enabled: 1
  m_Radius: 4.46
  m_Height: 1.85
  m_Direction: 1
  m_Center: {x: -0.3951099, y: 9.6, z: -0.47076917}
--- !u!205 &3492463344497068265
LODGroup:
  m_ObjectHideFlags: 0
  m_CorrespondingSourceObject: {fileID: 0}
  m_PrefabInstance: {fileID: 0}
  m_PrefabAsset: {fileID: 0}
  m_GameObject: {fileID: 4163517574509824029}
  serializedVersion: 2
  m_LocalReferencePoint: {x: -0.39511013, y: 5.5831246, z: -0.47076917}
  m_Size: 11.648849
  m_FadeMode: 0
  m_AnimateCrossFading: 0
  m_LastLODIsBillboard: 0
  m_LODs:
  - screenRelativeHeight: 0.1
    fadeTransitionWidth: 0
    renderers:
    - renderer: {fileID: 2506030389230741960}
  - screenRelativeHeight: 0.1
    fadeTransitionWidth: 0
    renderers: []
  - screenRelativeHeight: 0.1
    fadeTransitionWidth: 0
    renderers: []
  m_Enabled: 1
--- !u!1001 &3820918343847392588
PrefabInstance:
  m_ObjectHideFlags: 0
  serializedVersion: 2
  m_Modification:
    m_TransformParent: {fileID: 0}
    m_Modifications:
    - target: {fileID: -8679921383154817045, guid: 1adf1c8fde27477488e464fa0566b7ff, type: 3}
      propertyPath: m_RootOrder
      value: 0
      objectReference: {fileID: 0}
    - target: {fileID: -8679921383154817045, guid: 1adf1c8fde27477488e464fa0566b7ff, type: 3}
      propertyPath: m_LocalPosition.x
      value: 9.05533
      objectReference: {fileID: 0}
    - target: {fileID: -8679921383154817045, guid: 1adf1c8fde27477488e464fa0566b7ff, type: 3}
      propertyPath: m_LocalPosition.y
      value: -0.3
      objectReference: {fileID: 0}
    - target: {fileID: -8679921383154817045, guid: 1adf1c8fde27477488e464fa0566b7ff, type: 3}
      propertyPath: m_LocalPosition.z
      value: 47.36
      objectReference: {fileID: 0}
    - target: {fileID: -8679921383154817045, guid: 1adf1c8fde27477488e464fa0566b7ff, type: 3}
      propertyPath: m_LocalRotation.w
      value: 1
      objectReference: {fileID: 0}
    - target: {fileID: -8679921383154817045, guid: 1adf1c8fde27477488e464fa0566b7ff, type: 3}
      propertyPath: m_LocalRotation.x
      value: 0
      objectReference: {fileID: 0}
    - target: {fileID: -8679921383154817045, guid: 1adf1c8fde27477488e464fa0566b7ff, type: 3}
      propertyPath: m_LocalRotation.y
      value: 0
      objectReference: {fileID: 0}
    - target: {fileID: -8679921383154817045, guid: 1adf1c8fde27477488e464fa0566b7ff, type: 3}
      propertyPath: m_LocalRotation.z
      value: 0
      objectReference: {fileID: 0}
    - target: {fileID: -8679921383154817045, guid: 1adf1c8fde27477488e464fa0566b7ff, type: 3}
      propertyPath: m_LocalEulerAnglesHint.x
      value: 0
      objectReference: {fileID: 0}
    - target: {fileID: -8679921383154817045, guid: 1adf1c8fde27477488e464fa0566b7ff, type: 3}
      propertyPath: m_LocalEulerAnglesHint.y
      value: 0
      objectReference: {fileID: 0}
    - target: {fileID: -8679921383154817045, guid: 1adf1c8fde27477488e464fa0566b7ff, type: 3}
      propertyPath: m_LocalEulerAnglesHint.z
      value: 0
      objectReference: {fileID: 0}
    - target: {fileID: -7511558181221131132, guid: 1adf1c8fde27477488e464fa0566b7ff, type: 3}
      propertyPath: m_Materials.Array.data[0]
      value: 
      objectReference: {fileID: 2100000, guid: a25bbb6e7393cc64ca3a4db36e716ef9, type: 2}
    - target: {fileID: -6597097688982236908, guid: 1adf1c8fde27477488e464fa0566b7ff, type: 3}
      propertyPath: m_Materials.Array.data[0]
      value: 
      objectReference: {fileID: 2100000, guid: a25bbb6e7393cc64ca3a4db36e716ef9, type: 2}
    - target: {fileID: 919132149155446097, guid: 1adf1c8fde27477488e464fa0566b7ff, type: 3}
      propertyPath: m_Name
      value: Tree2 Variant
      objectReference: {fileID: 0}
    - target: {fileID: 8442510506162454399, guid: 1adf1c8fde27477488e464fa0566b7ff, type: 3}
      propertyPath: m_Materials.Array.data[0]
      value: 
      objectReference: {fileID: 2100000, guid: a25bbb6e7393cc64ca3a4db36e716ef9, type: 2}
    m_RemovedComponents: []
  m_SourcePrefab: {fileID: 100100000, guid: 1adf1c8fde27477488e464fa0566b7ff, type: 3}
--- !u!1 &4163517574509824029 stripped
GameObject:
  m_CorrespondingSourceObject: {fileID: 919132149155446097, guid: 1adf1c8fde27477488e464fa0566b7ff, type: 3}
  m_PrefabInstance: {fileID: 3820918343847392588}
  m_PrefabAsset: {fileID: 0}
--- !u!23 &2506030389230741960 stripped
MeshRenderer:
  m_CorrespondingSourceObject: {fileID: -7511558181221131132, guid: 1adf1c8fde27477488e464fa0566b7ff, type: 3}
  m_PrefabInstance: {fileID: 3820918343847392588}
  m_PrefabAsset: {fileID: 0}
